…
library(tidyverse)
library(scales)
library(stringr)
library(gh)

Next, we find all the functions exported by ggplot2, keep only those of the form geom_*, and put them in a data frame.

geoms <- getNamespaceExports("ggplot2") %>%
  keep(str_detect, pattern = "^geom") %>%
  data_frame(geom = .)

geoms

## # A tibble: 44 x 1
##           geom
##          <chr>
##  1   geom_text
##  2  geom_vline
##  3    geom_col
##  4   geom_tile
##  5     geom_qq
##  6  geom_label
##  7   geom_line
##  8 geom_smooth
##  9   geom_path
## 10  geom_spoke
## # ... with 34 more rows
…
## Processing: geom_text

## Processing: geom_vline

## Processing: geom_col

## Processing: geom_tile

## Processing: geom_qq

## ...

geoms

## # A tibble: 44 x 3
##           geom            result total_count
##          <chr>            <list>       <int>
##  1   geom_text <S3: gh_response>       38912
##  2  geom_vline <S3: gh_response>       29418
##  3    geom_col <S3: gh_response>        5088
##  4   geom_tile <S3: gh_response>       13993
##  5     geom_qq <S3: gh_response>         482
##  6  geom_label <S3: gh_response>        7703
##  7   geom_line <S3: gh_response>      116986
##  8 geom_smooth <S3: gh_response>       46169
##  9   geom_path <S3: gh_response>       12378
## 10  geom_spoke <S3: gh_response>         512
## # ... with 34 more rows
…
